[
    {
        "id": 1,
        "category": "PROSES_BOOKING",
        "title": "Cari Dokter",
        "description": "Cari dokter umum atau spesialis sesuai kebutuhan mu saat ini",
        "image_path": "/img/home_banner/panicButton.jpg"
    },
    {
        "id": 2,
        "category": "PROSES_BOOKING",
        "title": "Pilih Jadwal",
        "description": "Pilih jadwal, jam mulai dan durasi kapan anda ingin melakukan telekonsultasi dengan dokter",
        "image_path": "/img/home_banner/phr.png"
    },
    {
        "id": 3,
        "category": "PROSES_BOOKING",
        "title": "Lakukan Pembayaran",
        "description": "Lakukan pembayaran dengan menggunakan transfer antar bank, credit card, e-wallet atau voucher ",
        "image_path": "/img/home_banner/selfAssessment.jpg"
    },
    {
        "id": 4,
        "category": "PROSES_BOOKING",
        "title": "Telekonsultasi Dokter",
        "description": "Ceritakan keluhan anda dengan dokter kami menggunakan video call",
        "image_path": "/img/home_banner/panicButton.jpg"
    },
    {
        "id": 5,
        "category": "PROSES_BOOKING",
        "title": "Hasil EMR",
        "description": "Hasil konsultasi anda akan tersimpan di personal health record yang ada di aplikasi getwell dalam bentuk EMR (electronic medical record)",
        "image_path": "/img/home_banner/phr.png"
    }
]
